{
  "manifest": {
    "apis": {
      "custom": {
        "endpoint": {
          "uri": "arn:aws:lambda:eu-west-1:341026045947:function:pointy-prod-skill"
        },
        "interfaces": []
      }
    },
    "manifestVersion": "1.0",
    "privacyAndCompliance": {
      "locales": {
        "de-DE": {
          "privacyPolicyUrl": "https://bitbucket.org/derhackler/pointy/src/master/privacypolicy.md"
        }
      },
      "allowsPurchases": false,
      "usesPersonalInfo": false,
      "isChildDirected": true,
      "isExportCompliant": true,
      "containsAds": false
    },
    "publishingInformation": {
      "locales": {
        "de-DE": {
          "name": "Punktesammler",
          "smallIconUri": "https://s3.amazonaws.com/CAPS-SSE/echo_developer/e283/60937989b769444b8e2ab7d9ab6e0ee1/APP_ICON?versionId=ulabmJ6fUxAhus0PndlTtTlzAMndI8S8&AWSAccessKeyId=AKIAJFEYRBGIHK2BBYKA&Expires=1551129475&Signature=bZ3v1eGkycfO0Q6hjIMVuPxAW2U%3D",
          "largeIconUri": "https://s3.amazonaws.com/CAPS-SSE/echo_developer/9726/f39a90abcd904ae79db681edcab6fee9/APP_ICON_LARGE?versionId=6lVhEqUtNIm3_aQkdlXbdsSURsr66TYf&AWSAccessKeyId=AKIAJFEYRBGIHK2BBYKA&Expires=1551129475&Signature=Tj6UPtYlkvDMUHperudHOfoWJQw%3D",
          "summary": "Zählt Punkte, Sterne und Minuten",
          "description": "Auch wenn manche Pädagogen die Nase rümpfen: Kinder für gute Taten mit Punkten, Sternchen, oder Minuten zu belohnen, welche dann wieder gegen etwas eingetauscht werden können (z.B. Tablet schauen), kann für Kinder durchaus motivierend sein und den Erziehungsalltag von Eltern ein bisschen entspannen. Du kannst punktesammler natürlich auch zum Merken deines Spiele Punktestands, oder zum Zählen der von dir entdeckten Sterne verwenden.\n\nMit punktesammler kannst du ohne Setup gleich loslegen:\n\nDu kannst beliebigen Personen Punkte, Sterne, oder Minuten geben:\n\n- \"Alexa, öffne punktesammler und gib Elisabeth fünf Punkte\"\n- \"Alexa, öffne punktesammler und gib Benjamin drei Sternchen\"\n\nDu kannst eine Übersicht bekommen:\n\n- \"Alexa, frage punktesammler wie viele Sterne Benjamin hat\"\n- \"Alexa, frage punktesammler nach einer Punktübersicht\"\n\nDu kannst Punkte wieder abziehen:\n\n- \"Alexa, öffne punktesammler\"\n- \"Minus zwei Punkte für Elisabeth\"\n- \"Alexa, öffnet punktesammler und löse zwei Sternchen von Benjamin ein\"\n\nUnd du kannst jederzeit alle deine Daten löschen:\n\n- \"Alexa, öffne punktesammler\"\n- \"Alle Daten löschen\"\n\nViel Spaß mit punktesammler!\n\n\nFür Entwickler: Der Skill ist Open Source: https://bitbucket.org/derhackler/pointy/src/master/",
          "examplePhrases": [
            "Alexa, öffne punktesammler und gib Elisabeth drei Punkte.",
            "Alexa, öffne punktesammler und ziehe Elisabeth drei Punkte ab.",
            "Alexa, frage punktesammler wie viele Punkte Elisabeth hat."
          ],
          "keywords": [
            "punkteverwaltung",
            "bonus",
            "tracken",
            "punkte",
            "belohnungen",
            "belohnung",
            "aufzeichnen"
          ]
        }
      },
      "isAvailableWorldwide": true,
      "testingInstructions": "Nothing special. Just read the description and try it out.",
      "category": "CHILDRENS_GAMES",
      "distributionCountries": []
    }
  }
}
